{
    //"coc.preferences.jumpCommand": "vsplit",

    "python.pythonPath": "python",
    "python.jediEnabled": true,
    //"python.workspaceSymbols.enabled": true,
    //"python.venvPath": ["venv", ".venv"],

    "python.linting.enabled": true,
    "python.linting.pylintEnabled": false,
    "python.linting.flake8Enabled": true,
    "python.linting.flake8Args": ["--max-line-length=120"],

    "python.linting.mypyEnabled": true,
    "python.linting.mypyPath": "mypy",
    //"python.workspaceSymbols.ctagsPath": "/home/sevanteri/.local/bin/ctags",

    "html.filetypes": ["html", "tk", "xml"],
    "html.format.enable": true,

    "languageserver": {
        "ccls": {
            "command": "ccls",
            "filetypes": ["c", "cpp", "cuda", "objc", "objcpp"],
            "rootPatterns": [".ccls", ".ccls-root", "compile_commands.json"],
            "initializationOptions": {
                "cache": {
                    "directory": ".ccls-cache"
                }
            }
        },
        "godot": {
            "host": "127.0.0.1",
            "port": 6008,
            "filetypes": ["gd", "gdscript3"]
        }
    }
}
